[gd_resource type="Resource" script_class="SummonData" load_steps=5 format=3 uid="uid://bnyj8oo3r6fy"]

[ext_resource type="PackedScene" uid="uid://beo5n3pm8wvx0" path="res://Art/Creatures/Chimeras/mouth_eyes_wings.tscn" id="1_6rli5"]
[ext_resource type="PackedScene" uid="uid://cohhp6upq6ky4" path="res://Nodes/Summons/SummonObjects/Levtroch.tscn" id="2_ejhcb"]
[ext_resource type="Script" path="res://Nodes/Summons/SummonData/SummonData.gd" id="3_npmii"]
[ext_resource type="Texture2D" uid="uid://cmc5on6rq132m" path="res://Art/UI/CreaturePortraits/MouthEyesWings.png" id="4_6h2ds"]

[resource]
script = ExtResource("3_npmii")
name = "Levtroch"
desc = "The sky is bright and loud"
powerLevel = 5
hasSnoblar = false
hasSnorch = true
hasTrocto = true
hasLevturn = true
rarity = 0.0
point_cost = 0
thumbnail = ExtResource("4_6h2ds")
scene = ExtResource("2_ejhcb")
display = ExtResource("1_6rli5")
cooldown = 0
level = 0
