[gd_resource type="Resource" script_class="SummonData" load_steps=5 format=3 uid="uid://ddojg1u1fmdkv"]

[ext_resource type="PackedScene" uid="uid://brw6k46dxu76u" path="res://Art/Creatures/Levturn/levturn.tscn" id="1_0owam"]
[ext_resource type="PackedScene" uid="uid://b7agexccvqqv8" path="res://Nodes/Summons/SummonObjects/Levturn.tscn" id="2_whmr3"]
[ext_resource type="Script" path="res://Nodes/Summons/SummonData/SummonData.gd" id="3_6wbtk"]
[ext_resource type="Texture2D" uid="uid://cx88h5nhdvsvs" path="res://Art/UI/CreaturePortraits/Levturn.png" id="4_dsks1"]

[resource]
script = ExtResource("3_6wbtk")
name = "Levturn"
desc = "The one holding it all together"
powerLevel = 8
hasSnoblar = false
hasSnorch = false
hasTrocto = false
hasLevturn = true
rarity = 2.0
point_cost = 1
thumbnail = ExtResource("4_dsks1")
scene = ExtResource("2_whmr3")
display = ExtResource("1_0owam")
cooldown = 0
level = 0
