[gd_resource type="Resource" script_class="SummonData" load_steps=5 format=3 uid="uid://djfgdn70s60wv"]

[ext_resource type="PackedScene" uid="uid://b2cv777cg4t2f" path="res://Art/Creatures/Snoblar/snoblar.tscn" id="1_w01ou"]
[ext_resource type="PackedScene" uid="uid://dgk7p8biufnmr" path="res://Nodes/Summons/SummonObjects/Snoblar.tscn" id="2_nis0c"]
[ext_resource type="Script" path="res://Nodes/Summons/SummonData/SummonData.gd" id="3_wbr5o"]
[ext_resource type="Texture2D" uid="uid://scoiqfpp38h7" path="res://Art/UI/CreaturePortraits/Snoblar.png" id="4_yah33"]

[resource]
script = ExtResource("3_wbr5o")
name = "Snoblar"
desc = "Mr. Snoz"
powerLevel = 7
hasSnoblar = true
hasSnorch = false
hasTrocto = false
hasLevturn = false
rarity = 2.0
point_cost = 1
thumbnail = ExtResource("4_yah33")
scene = ExtResource("2_nis0c")
display = ExtResource("1_w01ou")
cooldown = 3
level = 0
