[gd_resource type="Resource" script_class="SummonData" load_steps=5 format=3 uid="uid://dyqemsbgsp8v4"]

[ext_resource type="PackedScene" uid="uid://b2cv777cg4t2f" path="res://Art/Creatures/Snoblar/snoblar.tscn" id="1_v6y0a"]
[ext_resource type="PackedScene" uid="uid://dgk7p8biufnmr" path="res://Nodes/Summons/SummonObjects/Snoblar.tscn" id="2_toh0t"]
[ext_resource type="Script" path="res://Nodes/Summons/SummonData/SummonData.gd" id="3_i41ve"]
[ext_resource type="Texture2D" uid="uid://scoiqfpp38h7" path="res://Art/UI/CreaturePortraits/Snoblar.png" id="4_fcjoc"]

[resource]
script = ExtResource("3_i41ve")
name = "Snoblar"
desc = "Mr. Snoz"
powerLevel = 5
hasSnoblar = true
hasSnorch = false
hasTrocto = false
hasLevturn = false
rarity = 2.0
point_cost = 1
thumbnail = ExtResource("4_fcjoc")
scene = ExtResource("2_toh0t")
display = ExtResource("1_v6y0a")
cooldown = 3
level = 0
