[gd_resource type="Resource" script_class="SummonData" load_steps=5 format=3 uid="uid://beieuaic4qtmp"]

[ext_resource type="PackedScene" uid="uid://3bjkhb08exk1" path="res://Art/Creatures/Chimeras/nose_mouth.tscn" id="1_5os86"]
[ext_resource type="PackedScene" uid="uid://xr4n7rjxuwdu" path="res://Nodes/Summons/SummonObjects/Blarch.tscn" id="2_71r70"]
[ext_resource type="Script" path="res://Nodes/Summons/SummonData/SummonData.gd" id="2_abdsv"]
[ext_resource type="Texture2D" uid="uid://blo51le0c5mwb" path="res://Art/UI/CreaturePortraits/NoseMouth.png" id="3_poew7"]

[resource]
script = ExtResource("2_abdsv")
name = "Blarch"
desc = "Hi, I'm Blarch!"
powerLevel = 10
hasSnoblar = true
hasSnorch = true
hasTrocto = false
hasLevturn = false
rarity = 0.0
point_cost = 0
thumbnail = ExtResource("3_poew7")
scene = ExtResource("2_71r70")
display = ExtResource("1_5os86")
cooldown = 0
level = 0
