[gd_resource type="Resource" script_class="StageGenerator" load_steps=7 format=3 uid="uid://dpee850ipqfmf"]

[ext_resource type="Resource" uid="uid://btyvl51fo5161" path="res://Nodes/Summons/SummonData/Levturn/Levturn1.tres" id="1_xyr8w"]
[ext_resource type="Resource" uid="uid://cv8ijieihq3v8" path="res://Nodes/Summons/SummonData/Snoblar/Snoblar1.tres" id="2_wpc67"]
[ext_resource type="Resource" uid="uid://cfgaslf1woc3b" path="res://Nodes/Summons/SummonData/Snorch/Snorch1.tres" id="3_mjq2h"]
[ext_resource type="Resource" uid="uid://b6dceeafkogxl" path="res://Nodes/Summons/SummonData/Trocto/Trocto1.tres" id="4_tbdys"]
[ext_resource type="PackedScene" uid="uid://dh0ebersdsbfq" path="res://Nodes/Levels/Maps/Map-Christian-Test.tscn" id="5_6vs2v"]
[ext_resource type="Script" path="res://Nodes/Progression/StageGenerator.gd" id="5_nvdbk"]

[resource]
script = ExtResource("5_nvdbk")
base_reward = 5
base_deck_points = 10
available_summons = Array[Resource("res://Nodes/Summons/SummonData/SummonData.gd")]([ExtResource("1_xyr8w"), ExtResource("2_wpc67"), ExtResource("3_mjq2h"), ExtResource("4_tbdys")])
maps = Array[PackedScene]([ExtResource("5_6vs2v")])
