# Blender MTL File: 'House_Level1_RedTeam.blend'
# Material Count: 7

newmtl Brown_House_Level1_RedTeam
Ns 225.000000
Ka 1.000000 1.000000 1.000000
Kd 0.132868 0.052861 0.000000
Ks 0.500000 0.500000 0.500000
Ke 0.000000 0.000000 0.000000
Ni 1.450000
d 1.000000
illum 2

newmtl DarkBrown_House_Level1_RedTeam
Ns 225.000000
Ka 1.000000 1.000000 1.000000
Kd 0.066807 0.027757 0.000000
Ks 0.500000 0.500000 0.500000
Ke 0.000000 0.000000 0.000000
Ni 1.450000
d 1.000000
illum 2

newmtl GrayBrown_House_Level1_RedTeam
Ns 225.000000
Ka 1.000000 1.000000 1.000000
Kd 0.367238 0.347674 0.281216
Ks 0.500000 0.500000 0.500000
Ke 0.000000 0.000000 0.000000
Ni 1.450000
d 1.000000
illum 2

newmtl Gray_House_Level1_RedTeam
Ns 225.000000
Ka 1.000000 1.000000 1.000000
Kd 0.252943 0.252943 0.252943
Ks 0.500000 0.500000 0.500000
Ke 0.000000 0.000000 0.000000
Ni 1.450000
d 1.000000
illum 2

newmtl Orange_House_Level1_RedTeam
Ns 225.000000
Ka 1.000000 1.000000 1.000000
Kd 0.367238 0.123081 0.011911
Ks 0.500000 0.500000 0.500000
Ke 0.000000 0.000000 0.000000
Ni 1.450000
d 1.000000
illum 2

newmtl Red_House_Level1_RedTeam
Ns 225.000000
Ka 1.000000 1.000000 1.000000
Kd 0.921582 0.000000 0.000000
Ks 0.500000 0.500000 0.500000
Ke 0.000000 0.000000 0.000000
Ni 1.450000
d 1.000000
illum 2

newmtl Yellow_House_Level1_RedTeam
Ns 225.000000
Ka 1.000000 1.000000 1.000000
Kd 0.830770 0.533277 0.046665
Ks 0.500000 0.500000 0.500000
Ke 0.000000 0.000000 0.000000
Ni 1.450000
d 1.000000
illum 2
