# Blender MTL File: 'House_Level2_RedTeam.blend'
# Material Count: 6

newmtl Brown_House_Level2_RedTeam
Ns 225.000000
Ka 1.000000 1.000000 1.000000
Kd 0.132868 0.052861 0.000000
Ks 0.500000 0.500000 0.500000
Ke 0.000000 0.000000 0.000000
Ni 1.450000
d 1.000000
illum 2

newmtl DarkBrown_House_Level2_RedTeam
Ns 225.000000
Ka 1.000000 1.000000 1.000000
Kd 0.066807 0.027757 0.000000
Ks 0.500000 0.500000 0.500000
Ke 0.000000 0.000000 0.000000
Ni 1.450000
d 1.000000
illum 2

newmtl GrayBrown_House_Level2_RedTeam
Ns 225.000000
Ka 1.000000 1.000000 1.000000
Kd 0.367238 0.300672 0.163265
Ks 0.500000 0.500000 0.500000
Ke 0.000000 0.000000 0.000000
Ni 1.450000
d 1.000000
illum 2

newmtl Red_House_Level2_RedTeam
Ns 225.000000
Ka 1.000000 1.000000 1.000000
Kd 0.921582 0.000000 0.000000
Ks 0.500000 0.500000 0.500000
Ke 0.000000 0.000000 0.000000
Ni 1.450000
d 1.000000
illum 2

newmtl Rock_House_Level2_RedTeam
Ns 225.000000
Ka 1.000000 1.000000 1.000000
Kd 0.239552 0.233611 0.205206
Ks 0.500000 0.500000 0.500000
Ke 0.000000 0.000000 0.000000
Ni 1.450000
d 1.000000
illum 2

newmtl Yellow_House_Level2_RedTeam
Ns 225.000000
Ka 1.000000 1.000000 1.000000
Kd 0.830770 0.533277 0.046665
Ks 0.500000 0.500000 0.500000
Ke 0.000000 0.000000 0.000000
Ni 1.450000
d 1.000000
illum 2
