[gd_resource type="Resource" script_class="SummonData" load_steps=5 format=3 uid="uid://1qajvpqvu7vn"]

[ext_resource type="Script" path="res://Nodes/Summons/SummonData/SummonData.gd" id="1_b08lg"]
[ext_resource type="PackedScene" uid="uid://bo5vo0hoo11lu" path="res://Art/Creatures/Chimeras/nose_wings.tscn" id="1_i7yab"]
[ext_resource type="PackedScene" uid="uid://cohf455d5s32s" path="res://Nodes/Summons/SummonObjects/Levblar.tscn" id="2_e2181"]
[ext_resource type="Texture2D" uid="uid://b86kax7puli1b" path="res://Art/UI/CreaturePortraits/NoseWings.png" id="2_jxq65"]

[resource]
script = ExtResource("1_b08lg")
name = "Levblar"
desc = "Flies straigI can see my enemies from above"
powerLevel = 2
hasSnoblar = true
hasSnorch = false
hasTrocto = false
hasLevturn = true
rarity = 0.0
point_cost = 0
thumbnail = ExtResource("2_jxq65")
scene = ExtResource("2_e2181")
display = ExtResource("1_i7yab")
cooldown = 0
level = 0
