[gd_resource type="Resource" script_class="SummonData" load_steps=5 format=3 uid="uid://bd4xk7bjt7ajp"]

[ext_resource type="PackedScene" uid="uid://cohf455d5s32s" path="res://Nodes/Summons/SummonObjects/Levblar.tscn" id="1_06ay7"]
[ext_resource type="PackedScene" uid="uid://bo5vo0hoo11lu" path="res://Art/Creatures/Chimeras/nose_wings.tscn" id="1_ncdp5"]
[ext_resource type="Script" path="res://Nodes/Summons/SummonData/SummonData.gd" id="2_jb58h"]
[ext_resource type="Texture2D" uid="uid://b86kax7puli1b" path="res://Art/UI/CreaturePortraits/NoseWings.png" id="3_y25yy"]

[resource]
script = ExtResource("2_jb58h")
name = "Levblar"
desc = "Flies straigI can see my enemies from above"
powerLevel = 7
hasSnoblar = true
hasSnorch = false
hasTrocto = false
hasLevturn = true
rarity = 0.0
point_cost = 0
thumbnail = ExtResource("3_y25yy")
scene = ExtResource("1_06ay7")
display = ExtResource("1_ncdp5")
cooldown = 0
level = 0
