[gd_resource type="Resource" script_class="SummonData" load_steps=5 format=3 uid="uid://bwfbuifhncqyp"]

[ext_resource type="PackedScene" uid="uid://dalcnvwrqecn4" path="res://Art/Creatures/Chimeras/nose_eyes_wings.tscn" id="1_42di5"]
[ext_resource type="PackedScene" uid="uid://drfndcpr3xglc" path="res://Nodes/Summons/SummonObjects/Levtroblar.tscn" id="2_5fcae"]
[ext_resource type="Script" path="res://Nodes/Summons/SummonData/SummonData.gd" id="3_lodad"]
[ext_resource type="Texture2D" uid="uid://75jrs0jvtmsi" path="res://Art/UI/CreaturePortraits/NoseEyesWings.png" id="4_6n388"]

[resource]
script = ExtResource("3_lodad")
name = "Levtroblar"
desc = "He is silenced"
powerLevel = 10
hasSnoblar = true
hasSnorch = false
hasTrocto = true
hasLevturn = true
rarity = 0.0
point_cost = 0
thumbnail = ExtResource("4_6n388")
scene = ExtResource("2_5fcae")
display = ExtResource("1_42di5")
cooldown = 0
level = 0
