[gd_resource type="Resource" script_class="SummonData" load_steps=5 format=3 uid="uid://cat1gkrvayass"]

[ext_resource type="PackedScene" uid="uid://dalcnvwrqecn4" path="res://Art/Creatures/Chimeras/nose_eyes_wings.tscn" id="1_14vrh"]
[ext_resource type="PackedScene" uid="uid://drfndcpr3xglc" path="res://Nodes/Summons/SummonObjects/Levtroblar.tscn" id="2_0whnh"]
[ext_resource type="Script" path="res://Nodes/Summons/SummonData/SummonData.gd" id="3_11ej7"]
[ext_resource type="Texture2D" uid="uid://75jrs0jvtmsi" path="res://Art/UI/CreaturePortraits/NoseEyesWings.png" id="4_600r0"]

[resource]
script = ExtResource("3_11ej7")
name = "Levtroblar"
desc = "He is silenced"
powerLevel = 7
hasSnoblar = true
hasSnorch = false
hasTrocto = true
hasLevturn = true
rarity = 0.0
point_cost = 0
thumbnail = ExtResource("4_600r0")
scene = ExtResource("2_0whnh")
display = ExtResource("1_14vrh")
cooldown = 0
level = 0
