[gd_scene load_steps=2 format=3 uid="uid://bk1qq7cgvsarw"]

[ext_resource type="Script" path="res://Nodes/TargetingPattern/ClosestEnemyTargetingPattern.gd" id="1_1ld14"]

[node name="ClosestEnemyTargetingPattern" type="Node"]
script = ExtResource("1_1ld14")
