[gd_scene load_steps=2 format=3 uid="uid://bagrid8lvf1td"]

[ext_resource type="Script" path="res://Nodes/Core/JsonSummonLoader.gd" id="1_dlmno"]

[node name="JsonSummonLoader" type="Node"]
script = ExtResource("1_dlmno")
