[gd_scene load_steps=2 format=3 uid="uid://c5spxl1avs4tl"]

[ext_resource type="Script" path="res://PodiumShopManager.gd" id="1_p0efb"]

[node name="ShopManager" type="Node3D"]
script = ExtResource("1_p0efb")
