[gd_scene load_steps=9 format=3 uid="uid://bj0hjk7ykerih"]

[ext_resource type="Script" path="res://Nodes/Shop/PodiumShopManager.gd" id="1_gdkgn"]
[ext_resource type="Script" path="res://Nodes/Shop/shopPool.gd" id="2_wwmcr"]
[ext_resource type="Resource" uid="uid://cv8ijieihq3v8" path="res://Nodes/Summons/SummonData/Snoblar/Snoblar1.tres" id="4_rkh1p"]
[ext_resource type="Resource" uid="uid://cfgaslf1woc3b" path="res://Nodes/Summons/SummonData/Snorch/Snorch1.tres" id="5_37d1k"]
[ext_resource type="PackedScene" uid="uid://b3l5res52ydac" path="res://Nodes/Shop/Shop.tscn" id="5_mf0o3"]
[ext_resource type="Resource" uid="uid://b6dceeafkogxl" path="res://Nodes/Summons/SummonData/Trocto/Trocto1.tres" id="5_pwwwe"]
[ext_resource type="Resource" uid="uid://btyvl51fo5161" path="res://Nodes/Summons/SummonData/Levturn/Levturn1.tres" id="6_8x2fo"]

[sub_resource type="Resource" id="Resource_lrryw"]
script = ExtResource("2_wwmcr")
summons = Array[Resource("res://Nodes/Summons/SummonData/SummonData.gd")]([ExtResource("4_rkh1p"), ExtResource("5_37d1k"), ExtResource("5_pwwwe"), ExtResource("6_8x2fo")])

[node name="ShopManager" type="Node3D"]
script = ExtResource("1_gdkgn")
shopPool = SubResource("Resource_lrryw")
shopScene = ExtResource("5_mf0o3")

[node name="Timer" type="Timer" parent="."]
wait_time = 30.0
