[gd_resource type="StandardMaterial3D" load_steps=4 format=3 uid="uid://bta7jja5mugi6"]

[ext_resource type="Texture2D" uid="uid://b0fguun2d5ekj" path="res://Art/Creatures/ChimeraTesting/Body_BaseColor.png" id="1_wfi84"]
[ext_resource type="Texture2D" uid="uid://balkeoo65q5bk" path="res://Art/Creatures/ChimeraTesting/Body_REM.png" id="2_u6c4d"]
[ext_resource type="Texture2D" uid="uid://bbi2qm7ftwd5" path="res://Art/Creatures/ChimeraTesting/Body_Normal.png" id="3_o0hf0"]

[resource]
albedo_texture = ExtResource("1_wfi84")
metallic = 1.0
metallic_texture = ExtResource("2_u6c4d")
metallic_texture_channel = 2
roughness_texture = ExtResource("2_u6c4d")
normal_enabled = true
normal_texture = ExtResource("3_o0hf0")
