[gd_resource type="StandardMaterial3D" load_steps=4 format=3 uid="uid://cwisi5qjaqlui"]

[ext_resource type="Texture2D" uid="uid://bhu54rp3j344l" path="res://Art/Environment/Materials/Bricks/Bricks_BaseColor.jpg" id="1_ssy5g"]
[ext_resource type="Texture2D" uid="uid://c5yjxpnhlhm7a" path="res://Art/Environment/Materials/Bricks/Bricks_Normal.jpg" id="2_15ti5"]
[ext_resource type="Texture2D" uid="uid://sjn2glwihgyf" path="res://Art/Environment/Materials/Bricks/Bricks_Rough.jpg" id="3_3ue5a"]

[resource]
vertex_color_use_as_albedo = true
albedo_texture = ExtResource("1_ssy5g")
roughness_texture = ExtResource("3_3ue5a")
normal_enabled = true
normal_texture = ExtResource("2_15ti5")
uv1_scale = Vector3(0.25, 0.25, 0.25)
uv1_triplanar = true
uv1_world_triplanar = true
