[gd_resource type="Resource" script_class="SummonData" load_steps=5 format=3 uid="uid://cf05mabme2uub"]

[ext_resource type="PackedScene" uid="uid://df78846gt5dou" path="res://Art/Creatures/Chimeras/nose_mouth_wings.tscn" id="1_olw5l"]
[ext_resource type="Script" path="res://Nodes/Summons/SummonData/SummonData.gd" id="2_r3if2"]
[ext_resource type="PackedScene" uid="uid://dxaymacunkioa" path="res://Nodes/Summons/SummonObjects/Levblarch.tscn" id="2_xk7dx"]
[ext_resource type="Texture2D" uid="uid://c6dklxaesgix4" path="res://Art/UI/CreaturePortraits/NoseMouthWings.png" id="3_stbfc"]

[resource]
script = ExtResource("2_r3if2")
name = "Levblarch"
desc = "I don't need to see this chaos"
powerLevel = 5
hasSnoblar = true
hasSnorch = true
hasTrocto = false
hasLevturn = true
rarity = 0.0
point_cost = 0
thumbnail = ExtResource("3_stbfc")
scene = ExtResource("2_xk7dx")
display = ExtResource("1_olw5l")
cooldown = 0
level = 0
