[gd_resource type="Resource" script_class="SummonData" load_steps=5 format=3 uid="uid://vmwr2u5feu5k"]

[ext_resource type="PackedScene" uid="uid://dgxkdjq7pb0i7" path="res://Art/Creatures/Trocto/trocto.tscn" id="1_8obnb"]
[ext_resource type="PackedScene" uid="uid://c0bhu6bsteayj" path="res://Nodes/Summons/SummonObjects/Trocto.tscn" id="2_n27hx"]
[ext_resource type="Script" path="res://Nodes/Summons/SummonData/SummonData.gd" id="3_vd8xo"]
[ext_resource type="Texture2D" uid="uid://qgn7wfndl2bb" path="res://Art/UI/CreaturePortraits/Trocto.png" id="4_iecqy"]

[resource]
script = ExtResource("3_vd8xo")
name = "Trocto"
desc = "Enjoys his own company"
powerLevel = 10
hasSnoblar = false
hasSnorch = false
hasTrocto = true
hasLevturn = false
rarity = 2.0
point_cost = 1
thumbnail = ExtResource("4_iecqy")
scene = ExtResource("2_n27hx")
display = ExtResource("1_8obnb")
cooldown = 0
level = 0
