[gd_resource type="Resource" script_class="SummonData" load_steps=5 format=3 uid="uid://bldbamsja3185"]

[ext_resource type="PackedScene" uid="uid://dt0kt5i8eyy1l" path="res://Art/Creatures/Chimeras/eyes_wings.tscn" id="1_k042v"]
[ext_resource type="Script" path="res://Nodes/Summons/SummonData/SummonData.gd" id="2_a05qq"]
[ext_resource type="PackedScene" uid="uid://ditc1yjnbyj8x" path="res://Nodes/Summons/SummonObjects/Levtro.tscn" id="2_xb7v5"]
[ext_resource type="Texture2D" uid="uid://b33uapqpl8o5p" path="res://Art/UI/CreaturePortraits/EyesWings.png" id="3_am4v2"]

[resource]
script = ExtResource("2_a05qq")
name = "Levtro"
desc = "He can see and fly"
powerLevel = 6
hasSnoblar = false
hasSnorch = false
hasTrocto = true
hasLevturn = true
rarity = 0.0
point_cost = 0
thumbnail = ExtResource("3_am4v2")
scene = ExtResource("2_xb7v5")
display = ExtResource("1_k042v")
cooldown = 0
level = 0
