[gd_resource type="Resource" script_class="SummonData" load_steps=5 format=3 uid="uid://cj5a135rahq36"]

[ext_resource type="PackedScene" uid="uid://dt0kt5i8eyy1l" path="res://Art/Creatures/Chimeras/eyes_wings.tscn" id="1_asbxx"]
[ext_resource type="PackedScene" uid="uid://ditc1yjnbyj8x" path="res://Nodes/Summons/SummonObjects/Levtro.tscn" id="2_4u466"]
[ext_resource type="Script" path="res://Nodes/Summons/SummonData/SummonData.gd" id="2_pbmes"]
[ext_resource type="Texture2D" uid="uid://b33uapqpl8o5p" path="res://Art/UI/CreaturePortraits/EyesWings.png" id="3_vtsyf"]

[resource]
script = ExtResource("2_pbmes")
name = "Levtro"
desc = "He can see and fly"
powerLevel = 9
hasSnoblar = false
hasSnorch = false
hasTrocto = true
hasLevturn = true
rarity = 0.0
point_cost = 0
thumbnail = ExtResource("3_vtsyf")
scene = ExtResource("2_4u466")
display = ExtResource("1_asbxx")
cooldown = 0
level = 0
