[gd_resource type="Resource" script_class="SummonData" load_steps=5 format=3 uid="uid://ce3jvq8usxo0j"]

[ext_resource type="PackedScene" uid="uid://dt0kt5i8eyy1l" path="res://Art/Creatures/Chimeras/eyes_wings.tscn" id="1_fkr6r"]
[ext_resource type="Script" path="res://Nodes/Summons/SummonData/SummonData.gd" id="2_plpi1"]
[ext_resource type="PackedScene" uid="uid://ditc1yjnbyj8x" path="res://Nodes/Summons/SummonObjects/Levtro.tscn" id="2_xup1t"]
[ext_resource type="Texture2D" uid="uid://b33uapqpl8o5p" path="res://Art/UI/CreaturePortraits/EyesWings.png" id="3_coojl"]

[resource]
script = ExtResource("2_plpi1")
name = "Levtro"
desc = "He can see and fly"
powerLevel = 4
hasSnoblar = false
hasSnorch = false
hasTrocto = true
hasLevturn = true
rarity = 0.0
point_cost = 0
thumbnail = ExtResource("3_coojl")
scene = ExtResource("2_xup1t")
display = ExtResource("1_fkr6r")
cooldown = 0
level = 0
