[gd_resource type="Resource" script_class="SummonData" load_steps=5 format=3 uid="uid://cl5y5r2ng7uyp"]

[ext_resource type="PackedScene" uid="uid://bt7ah0xr84g2l" path="res://Art/Creatures/Chimeras/mouth_wings.tscn" id="1_7g03b"]
[ext_resource type="PackedScene" uid="uid://4g3qmybgt08n" path="res://Nodes/Summons/SummonObjects/Levch.tscn" id="2_lraw4"]
[ext_resource type="Script" path="res://Nodes/Summons/SummonData/SummonData.gd" id="2_ym84q"]
[ext_resource type="Texture2D" uid="uid://c4hvnwdo5jwj7" path="res://Art/UI/CreaturePortraits/MouthWings.png" id="3_imjkn"]

[resource]
script = ExtResource("2_ym84q")
name = "Levch"
desc = "Likes to fly around looking for good things to eat"
powerLevel = 2
hasSnoblar = false
hasSnorch = true
hasTrocto = false
hasLevturn = true
rarity = 0.0
point_cost = 0
thumbnail = ExtResource("3_imjkn")
scene = ExtResource("2_lraw4")
display = ExtResource("1_7g03b")
cooldown = 0
level = 0
