[gd_resource type="Resource" script_class="SummonData" load_steps=5 format=3 uid="uid://dbabjtm21i0rl"]

[ext_resource type="PackedScene" uid="uid://bpdg3ghxwwlmb" path="res://Art/Creatures/Snorch/snorch.tscn" id="1_v3y71"]
[ext_resource type="PackedScene" uid="uid://06exmo1lhlww" path="res://Nodes/Summons/SummonObjects/Snorch.tscn" id="2_qnh0h"]
[ext_resource type="Script" path="res://Nodes/Summons/SummonData/SummonData.gd" id="3_ujcqa"]
[ext_resource type="Texture2D" uid="uid://degii754qxel0" path="res://Art/UI/CreaturePortraits/Snorch.png" id="4_6fer7"]

[resource]
script = ExtResource("3_ujcqa")
name = "Snorch"
desc = "Yum yum"
powerLevel = 9
hasSnoblar = false
hasSnorch = true
hasTrocto = false
hasLevturn = false
rarity = 2.0
point_cost = 1
thumbnail = ExtResource("4_6fer7")
scene = ExtResource("2_qnh0h")
display = ExtResource("1_v3y71")
cooldown = 0
level = 0
