[gd_resource type="Resource" script_class="SummonData" load_steps=5 format=3 uid="uid://cwo3w6suvitet"]

[ext_resource type="PackedScene" uid="uid://bpdg3ghxwwlmb" path="res://Art/Creatures/Snorch/snorch.tscn" id="1_mlcgs"]
[ext_resource type="PackedScene" uid="uid://06exmo1lhlww" path="res://Nodes/Summons/SummonObjects/Snorch.tscn" id="2_xe1jt"]
[ext_resource type="Script" path="res://Nodes/Summons/SummonData/SummonData.gd" id="3_qwflb"]
[ext_resource type="Texture2D" uid="uid://degii754qxel0" path="res://Art/UI/CreaturePortraits/Snorch.png" id="4_s0iy8"]

[resource]
script = ExtResource("3_qwflb")
name = "Snorch"
desc = "Yum yum"
powerLevel = 6
hasSnoblar = false
hasSnorch = true
hasTrocto = false
hasLevturn = false
rarity = 2.0
point_cost = 1
thumbnail = ExtResource("4_s0iy8")
scene = ExtResource("2_xe1jt")
display = ExtResource("1_mlcgs")
cooldown = 0
level = 0
