[gd_resource type="Resource" script_class="SummonData" load_steps=5 format=3 uid="uid://c2ldd3nybn7sg"]

[ext_resource type="PackedScene" uid="uid://bpdg3ghxwwlmb" path="res://Art/Creatures/Snorch/snorch.tscn" id="1_i2ss1"]
[ext_resource type="PackedScene" uid="uid://06exmo1lhlww" path="res://Nodes/Summons/SummonObjects/Snorch.tscn" id="2_pyi0n"]
[ext_resource type="Script" path="res://Nodes/Summons/SummonData/SummonData.gd" id="3_mstw0"]
[ext_resource type="Texture2D" uid="uid://degii754qxel0" path="res://Art/UI/CreaturePortraits/Snorch.png" id="4_pewsn"]

[resource]
script = ExtResource("3_mstw0")
name = "Snorch"
desc = "Yum yum"
powerLevel = 7
hasSnoblar = false
hasSnorch = true
hasTrocto = false
hasLevturn = false
rarity = 2.0
point_cost = 1
thumbnail = ExtResource("4_pewsn")
scene = ExtResource("2_pyi0n")
display = ExtResource("1_i2ss1")
cooldown = 0
level = 0
